<?xml version="1.0" encoding="UTF-8"?>
<session version="1.0">
<refactoring accessors="true" comment="Delete element from project &apos;fj21-agenda&apos;&#x0A;- Original project: &apos;fj21-agenda&apos;&#x0A;- Original element: &apos;br.com.caelum.servlet.OiMundo.java&apos;" description="Delete element" element1="/src&lt;br.com.caelum.servlet{OiMundo.java" elements="1" flags="589830" id="org.eclipse.jdt.ui.delete" resources="0" stamp="1464151180522" subPackages="false" version="1.0"/>
</session>